…
``` r
minuteMETs_merged %>%
  separate(ActivityMinute, c("date", "minute"), sep = " ") %>%
  group_by(Id, date) %>%
  filter(n() < 1440) %>%
  summarise(mins_recorded = n())
```

    ## # A tibble: 31 × 3
    ## # Groups:   Id [31]
    ##            Id date       mins_recorded
    ##         <dbl> <chr>              <int>
    ##  1 1503960366 2016-05-11          1260
    ##  2 1624580081 2016-05-12           960
    ##  3 1644430081 2016-05-11           720
    ##  4 1844505072 2016-05-12           660
    ##  5 1927972279 2016-05-12           960
    ##  6 2022484408 2016-05-12           900
    ##  7 2026352035 2016-05-12           960
    ##  8 2320127002 2016-05-12           900
    ##  9 2347167796 2016-04-29           360
    ## 10 2873212765 2016-05-12           960
    ## # ℹ 21 more rows
…
We can now peek each user’s usage by

``` r
daily_summary %>%
  group_by(Id) %>%
  summarise(days_of_use = n()) %>%
  arrange(days_of_use)
```

    ## # A tibble: 33 × 2
    ##            Id days_of_use
    ##         <dbl>       <int>
    ##  1 4057192912           3
    ##  2 2347167796          17
    ##  3 8253242879          17
    ##  4 3372868164          19
    ##  5 6775888955          25
    ##  6 7007744171          25
    ##  7 6117666160          27
    ##  8 6290855005          27
    ##  9 8792009665          28
    ## 10 1503960366          29
    ## # ℹ 23 more rows
…
We were puzzled that the graph looks pretty similar to the intensity
graph “Average intensity throughout a day” shown earlier. It is natural
to guess the higher the sleep value, the less deep the sleep is.
Nevertheless, the fact that the graph stretches throughout the entire
day led us to believe that there may be instances where exercise
intensities and sleep values were recorded simultaneously. We found out
this is indeed the case:

``` r
merge(x = minuteSleep_merged, y = minuteIntensities_merged, by.x = c("Id", "date"), by.y = c("Id","ActivityMinute")) %>% 
  filter(Intensity>0) %>%
  as_tibble()
```

    ## # A tibble: 1,612 × 5
    ##            Id date                value       logId Intensity
    ##         <dbl> <chr>               <dbl>       <dbl>     <dbl>
    ##  1 1503960366 2016-04-15 05:18:00     2 11402722600         1
    ##  2 1503960366 2016-04-15 07:41:00     2 11402722600         1
    ##  3 1503960366 2016-04-15 08:07:00     2 11402722600         1
    ##  4 1503960366 2016-04-15 08:08:00     2 11402722600         1
    ##  5 1503960366 2016-04-15 08:17:00     2 11402722600         1
    ##  6 1503960366 2016-04-15 08:18:00     2 11402722600         1
    ##  7 1503960366 2016-04-15 08:19:00     2 11402722600         1
    ##  8 1503960366 2016-04-15 09:09:00     2 11402722600         1
    ##  9 1503960366 2016-04-15 09:10:00     2 11402722600         1
    ## 10 1503960366 2016-04-16 03:22:00     2 11421831252         1
    ## # ℹ 1,602 more rows
…
